{
  "swagger": "2.0",
  "info": {
    "version": "1.0.0",
    "title": "Beekin Assignement",
    "description": "Jobs API",
    "license": {
      "name": "MIT",
      "url": "https://opensource.org/licenses/MIT"
    }
  },
  "host": "localhost:4500",
  "tags": [
    {
      "name": "Jobs",
      "description": "API GET scraped jobs"
    }
  ],
  "schemes": ["http"],
  "consumes": ["application/json"],
  "produces": ["application/json"],

  "paths": {
    "/jobs": {
      "get": {
        "tags": ["Jobs"],
        "summary": "Get all scrapped jobs from indeed",
        "responses": {
          "200": {
            "description": "OK",
            "schema": {
              "$ref": "#/definitions/Jobs"
            }
          }
        }
      }
    }
  },
  "definitions": {
    "Jobs": {
      "required": ["_id"],
      "properties": {
        "_id": {
          "type": "integer",
          "uniqueItems": true
        },
        "indeed_link": {
          "type": "string"
        },
        "title": {
          "type": "string"
        },
        "location": {
          "type": "string"
        },
        "description": {
          "type": "string"
        },
        "experience": {
          "type": "string"
        },
        "company": {
          "type": "string"
        }
      }
    }
  }

}